<?xml version="1.0" encoding="UTF-8" standalone="no"?><svg xmlns="http://www.w3.org/2000/svg" xmlns:xlink="http://www.w3.org/1999/xlink" contentScriptType="application/ecmascript" contentStyleType="text/css" height="314.0625px" preserveAspectRatio="none" style="width:595px;height:314px;background:#FFFFFF;" version="1.1" viewBox="0 0 595 314" width="595.3125px" zoomAndPan="magnify"><defs><filter height="300%" id="f11xcgjy04tvks" width="300%" x="-1" y="-1"><feGaussianBlur result="blurOut" stdDeviation="3.125"/><feColorMatrix in="blurOut" result="blurOut2" type="matrix" values="0 0 0 0 0 0 0 0 0 0 0 0 0 0 0 0 0 0 .4 0"/><feOffset dx="6.25" dy="6.25" in="blurOut2" result="blurOut3"/><feBlend in="SourceGraphic" in2="blurOut3" mode="normal"/></filter></defs><g><!--MD5=[b4e09d266be9964199f2622adcc056fa]
cluster Backend--><rect fill="#FFFFFF" filter="url(#f11xcgjy04tvks)" height="281.25" style="stroke:#000000;stroke-width:2.34375;" width="178.125" x="271.875" y="10.9375"/><rect fill="#FFFFFF" height="15.625" style="stroke:#000000;stroke-width:2.34375;" width="23.4375" x="418.75" y="18.75"/><rect fill="#FFFFFF" height="3.125" style="stroke:#000000;stroke-width:2.34375;" width="6.25" x="415.625" y="21.875"/><rect fill="#FFFFFF" height="3.125" style="stroke:#000000;stroke-width:2.34375;" width="6.25" x="415.625" y="28.125"/><text fill="#000000" font-family="sans-serif" font-size="18.75" font-weight="bold" lengthAdjust="spacing" textLength="78.125" x="321.875" y="50.0001">Backend</text><!--MD5=[fca8240bc233c06068545f9c8883ae88]
cluster Frontend--><rect fill="#FFFFFF" filter="url(#f11xcgjy04tvks)" height="129.6875" style="stroke:#000000;stroke-width:2.34375;" width="153.125" x="81.25" y="17.9688"/><rect fill="#FFFFFF" height="15.625" style="stroke:#000000;stroke-width:2.34375;" width="23.4375" x="203.125" y="25.7813"/><rect fill="#FFFFFF" height="3.125" style="stroke:#000000;stroke-width:2.34375;" width="6.25" x="200" y="28.9063"/><rect fill="#FFFFFF" height="3.125" style="stroke:#000000;stroke-width:2.34375;" width="6.25" x="200" y="35.1563"/><text fill="#000000" font-family="sans-serif" font-size="18.75" font-weight="bold" lengthAdjust="spacing" textLength="81.25" x="117.1875" y="57.0314">Frontend</text><!--MD5=[304ab172b4792e837a4f20a723ff7b14]
entity strapi_cms--><rect fill="#FEFECE" filter="url(#f11xcgjy04tvks)" height="53.7502" style="stroke:#A80036;stroke-width:2.34375;" width="128.125" x="296.875" y="214.0625"/><text fill="#000000" font-family="sans-serif" font-size="18.75" lengthAdjust="spacing" textLength="96.875" x="312.5" y="248.4376">Strapi CMS</text><!--MD5=[63f49a851884a930f4e13eeef23e75ec]
entity strapi_db--><path d="M305.4688,78.125 C305.4688,62.5 360.9375,62.5 360.9375,62.5 C360.9375,62.5 416.4063,62.5 416.4063,78.125 L416.4063,114.6877 C416.4063,130.3127 360.9375,130.3127 360.9375,130.3127 C360.9375,130.3127 305.4688,130.3127 305.4688,114.6877 L305.4688,78.125 " fill="#FEFECE" filter="url(#f11xcgjy04tvks)" style="stroke:#000000;stroke-width:2.34375;"/><path d="M305.4688,78.125 C305.4688,93.75 360.9375,93.75 360.9375,93.75 C360.9375,93.75 416.4063,93.75 416.4063,78.125 " fill="none" style="stroke:#000000;stroke-width:2.34375;"/><text fill="#000000" font-family="sans-serif" font-size="18.75" lengthAdjust="spacing" textLength="79.6875" x="321.0938" y="118.7501">Strapi DB</text><!--MD5=[2d4ce9a4edd1a149b85ae7b28647c46e]
entity strapido--><rect fill="#FEFECE" filter="url(#f11xcgjy04tvks)" height="53.7502" style="stroke:#A80036;stroke-width:2.34375;" width="101.5625" x="107.0313" y="69.5313"/><text fill="#000000" font-family="sans-serif" font-size="18.75" lengthAdjust="spacing" textLength="70.3125" x="122.6563" y="103.9064">Strapido</text><!--MD5=[79a439086b036a57b90a01d7b2f8bbd1]
entity admin--><ellipse cx="529.6875" cy="49.2188" fill="#FEFECE" filter="url(#f11xcgjy04tvks)" rx="12.5" ry="12.5" style="stroke:#A80036;stroke-width:2.34375;"/><path d="M529.6875,61.7188 L529.6875,103.9063 M509.375,74.2188 L550,74.2188 M529.6875,103.9063 L509.375,127.3438 M529.6875,103.9063 L550,127.3438 " fill="none" filter="url(#f11xcgjy04tvks)" style="stroke:#A80036;stroke-width:2.34375;"/><text fill="#000000" font-family="sans-serif" font-size="18.75" lengthAdjust="spacing" textLength="109.375" x="475" y="154.6876">Administrator</text><!--MD5=[8fc3522a43f8c7199df5e09e5bb0188e]
entity user--><ellipse cx="29.6875" cy="49.2188" fill="#FEFECE" filter="url(#f11xcgjy04tvks)" rx="12.5" ry="12.5" style="stroke:#A80036;stroke-width:2.34375;"/><path d="M29.6875,61.7188 L29.6875,103.9063 M9.375,74.2188 L50,74.2188 M29.6875,103.9063 L9.375,127.3438 M29.6875,103.9063 L50,127.3438 " fill="none" filter="url(#f11xcgjy04tvks)" style="stroke:#A80036;stroke-width:2.34375;"/><text fill="#000000" font-family="sans-serif" font-size="18.75" lengthAdjust="spacing" textLength="39.0625" x="10.1563" y="154.6876">User</text><!--MD5=[a2fe5258857eb90fd500b6dedbe812b2]
link strapi_db to strapi_cms--><path d="M360.9375,137.7656 C360.9375,159.1094 360.9375,185.0781 360.9375,205.375 " fill="none" id="strapi_db-strapi_cms" style="stroke:#A80036;stroke-width:1.09375;"/><polygon fill="#A80036" points="360.9375,213.6875,367.1875,199.625,360.9375,205.875,354.6875,199.625,360.9375,213.6875" style="stroke:#A80036;stroke-width:1.09375;"/><polygon fill="#A80036" points="360.9375,129.75,354.6875,143.8125,360.9375,137.5625,367.1875,143.8125,360.9375,129.75" style="stroke:#A80036;stroke-width:1.09375;"/><!--MD5=[acce6bea4c3328d27957f0b39828a836]
link strapido to strapi_cms--><path d="M178.1094,122.9063 C197.1406,145.2344 227.4063,177.4375 259.375,198.4375 C268.6563,204.5313 279,209.9688 289.4375,214.7188 " fill="none" id="strapido-to-strapi_cms" style="stroke:#A80036;stroke-width:1.09375;"/><polygon fill="#A80036" points="296.6719,217.9063,286.3233,206.5166,289.5226,214.7561,281.2831,217.9554,296.6719,217.9063" style="stroke:#A80036;stroke-width:1.09375;"/><text fill="#000000" font-family="sans-serif" font-size="18.75" lengthAdjust="spacing" textLength="85.9375" x="260.9375" y="193.7501">HTTP API</text><!--MD5=[8277ccd10f8d66d933c8b62c8ed8ddc0]
link admin to strapi_cms--><path d="M474.9063,143.5625 C449.3906,164.9375 419.75,189.7812 397.0938,208.7656 " fill="none" id="admin-to-strapi_cms" style="stroke:#A80036;stroke-width:1.09375;"/><polygon fill="#A80036" points="390.8906,213.9688,405.6872,209.7405,396.8832,208.9564,397.6674,200.1524,390.8906,213.9688" style="stroke:#A80036;stroke-width:1.09375;"/><text fill="#000000" font-family="sans-serif" font-size="18.75" lengthAdjust="spacing" textLength="76.5625" x="435.9375" y="193.7501">Admin UI</text><!--MD5=[50f191a86dc4cdfe2dfc19d19c9281c2]
link user to strapido--><path d="M52.7031,96.0938 C68.0938,96.0938 83.4688,96.0938 98.8594,96.0938 " fill="none" id="user-to-strapido" style="stroke:#A80036;stroke-width:1.09375;"/><polygon fill="#A80036" points="106.9063,96.0938,92.8438,89.8438,99.0938,96.0938,92.8438,102.3438,106.9063,96.0938" style="stroke:#A80036;stroke-width:1.09375;"/><!--MD5=[96d1e9262adba157607d60a949cc8d50]
@startuml
skinparam ranksep 20
skinparam dpi 150
skinparam arrowThickness 0.7
skinparam packageTitleAlignment left
skinparam usecaseBorderThickness 0.4
skinparam defaultFontSize 12
skinparam rectangleBorderThickness 1

actor "Administrator" as admin
actor "User" as user
component "Backend" {
   agent "Strapi CMS" as strapi_cms
   database "Strapi DB" as strapi_db
}

strapi_db <- -> strapi_cms

component "Frontend" {
  agent "Strapido" as strapido
}


strapido - -> strapi_cms : "HTTP API"

admin - -> strapi_cms: "Admin UI"
user -> strapido
@enduml

PlantUML version 1.2021.16(Wed Dec 08 17:25:22 GMT 2021)
(GPL source distribution)
Java Runtime: OpenJDK Runtime Environment
JVM: OpenJDK 64-Bit Server VM
Default Encoding: UTF-8
Language: en
Country: US
--></g></svg>