{
  "kind": "collectionType",
  "collectionName": "investing_steps",
  "info": {
    "name": "Investing Steps",
    "description": ""
  },
  "options": {
    "increments": true,
    "timestamps": true,
    "draftAndPublish": true
  },
  "pluginOptions": {},
  "attributes": {
    "name": {
      "type": "string"
    },
    "fullName": {
      "type": "string"
    },
    "rank": {
      "type": "integer",
      "required": true
    }
  }
}
