{
  "routes": [
    {
      "method": "GET",
      "path": "/investing-steps",
      "handler": "investing-steps.find",
      "config": {
        "policies": []
      }
    },
    {
      "method": "GET",
      "path": "/investing-steps/count",
      "handler": "investing-steps.count",
      "config": {
        "policies": []
      }
    },
    {
      "method": "GET",
      "path": "/investing-steps/:id",
      "handler": "investing-steps.findOne",
      "config": {
        "policies": []
      }
    },
    {
      "method": "POST",
      "path": "/investing-steps",
      "handler": "investing-steps.create",
      "config": {
        "policies": []
      }
    },
    {
      "method": "PUT",
      "path": "/investing-steps/:id",
      "handler": "investing-steps.update",
      "config": {
        "policies": []
      }
    },
    {
      "method": "DELETE",
      "path": "/investing-steps/:id",
      "handler": "investing-steps.delete",
      "config": {
        "policies": []
      }
    }
  ]
}
